landmark {
    name: "Route: Sunnyvale Sunset Loop",
waypoint {
  pose {
    x: 587252.6213510941
    y: 4141518.7533903266
  }
}
waypoint {
  pose {
    x: 587885.50935134257
    y: 4140565.9221575032
  }
}
waypoint {
  pose {
    x: 586940.37333049485
    y: 4140285.144367686
  }
}
waypoint {
  pose {
    x: 586744.3449809649
    y: 4140366.4978112872
  }
}
waypoint {
  pose {
    x: 587019.87237109174
    y: 4141453.6094877133
  }
}
waypoint {
  pose {
    x: 587029.38208628329
    y: 4141593.9241180932
  }
}
waypoint {
  pose {
    x: 586986.31648818334
    y: 4141601.7906173957
  }
}
waypoint {
  pose {
    x: 587248.05619417818
    y: 4141520.1808287804
  }
}
waypoint {
  pose {
    x: 587972.94038722757
    y: 4140592.6470626
  }
}
waypoint {
  pose {
    x: 586942.81582682789
    y: 4140285.6030601626
  }
}
waypoint {
  pose {
    x: 586745.698827212
    y: 4140370.930745543
  }
}
waypoint {
  pose {
    x: 587018.86983719922
    y: 4141450.8436999628
  }
}
waypoint {
  pose {
    x: 587027.76507628581
    y: 4141594.6878136639
  }
}
waypoint {
  pose {
    x: 586984.30684886163
    y: 4141602.8203473124
  }
}
waypoint {
  pose {
    x: 587238.95632372412
    y: 4141522.00336388
  }
}
waypoint {
  pose {
    x: 587252.6213510941
    y: 4141518.7533903266
  }
}
waypoint {
  pose {
    x: 587885.50935134257
    y: 4140565.9221575032
  }
}
waypoint {
  pose {
    x: 586940.37333049485
    y: 4140285.144367686
  }
}
waypoint {
  pose {
    x: 586744.3449809649
    y: 4140366.4978112872
  }
}
waypoint {
  pose {
    x: 587019.87237109174
    y: 4141453.6094877133
  }
}
waypoint {
  pose {
    x: 587029.38208628329
    y: 4141593.9241180932
  }
}
waypoint {
  pose {
    x: 586986.31648818334
    y: 4141601.7906173957
  }
}
waypoint {
  pose {
    x: 587248.05619417818
    y: 4141520.1808287804
  }
}
waypoint {
  pose {
    x: 587972.94038722757
    y: 4140592.6470626
  }
}
waypoint {
  pose {
    x: 586942.81582682789
    y: 4140285.6030601626
  }
}
waypoint {
  pose {
    x: 586745.698827212
    y: 4140370.930745543
  }
}
waypoint {
  pose {
    x: 587018.86983719922
    y: 4141450.8436999628
  }
}
waypoint {
  pose {
    x: 587027.76507628581
    y: 4141594.6878136639
  }
}
waypoint {
  pose {
    x: 586984.30684886163
    y: 4141602.8203473124
  }
}
waypoint {
  pose {
    x: 587238.95632372412
    y: 4141522.00336388
  }
}
}
landmark {
  name: "Route: Caribbean Loop",

  waypoint {
    pose {
      x: 587189.89507007715
      y: 4141534.5720600463
    }
  }
  waypoint {
    pose {
      x: 587286.782112754
      y: 4141510.9962709444
    }
  }
  waypoint {
    pose {
      x: 587501.6362057809
      y: 4141498.1691227686
    }
  }
  waypoint {
    pose {
      x: 588129.53955134458
      y: 4141342.5741393263
    }
  }
  waypoint {
    pose {
      x: 588205.37445714476
      y: 4141327.0227222713
    }
  }
  waypoint {
    pose {
      x: 588281.12275173352
      y: 4141318.5779650351
    }
  }
  waypoint {
    pose {
      x: 588219.25111757417
      y: 4141335.8852993222
    }
  }
  waypoint {
    pose {
      x: 586306.26546301541
      y: 4141518.0569969574
    }
  }
  waypoint {
    pose {
      x: 586295.60167323542
      y: 4141481.0869506858
    }
  }
  waypoint {
    pose {
      x: 586290.17846443038
      y: 4141461.0110903094
    }
  }
  waypoint {
    pose {
      x: 586252.76573614636
      y: 4141308.4428154449
    }
  }
  waypoint {
    pose {
      x: 586240.92443582392
      y: 4141258.4238218088
    }
  }
  waypoint {
    pose {
      x: 586175.438006668
      y: 4140981.6502319085
    }
  }
  waypoint {
    pose {
      x: 586102.940920319
      y: 4140679.879512683
    }
  }
  waypoint {
    pose {
      x: 586138.14119181852
      y: 4140549.7710525109
    }
  }
  waypoint {
    pose {
      x: 586118.72239763523
      y: 4140614.5164858303
    }
  }
  waypoint {
    pose {
      x: 587255.18689519586
      y: 4141521.7848066222
    }
  }
  waypoint {
    pose {
      x: 587504.51768370648
      y: 4141497.03235016
    }
  }
  waypoint {
    pose {
      x: 588130.52323768951
      y: 4141342.6437962204
    }
  }
  waypoint {
    pose {
      x: 588208.0666861292
      y: 4141326.3196160737
    }
  }
  waypoint {
    pose {
      x: 588280.302763001
      y: 4141318.6522360253
    }
  }
  waypoint {
    pose {
      x: 588217.76604096266
      y: 4141336.8518142849
    }
  }
  waypoint {
    pose {
      x: 586305.9883396111
      y: 4141517.8990784604
    }
  }
  waypoint {
    pose {
      x: 586295.26590337534
      y: 4141481.8519583889
    }
  }
  waypoint {
    pose {
      x: 586290.71625512815
      y: 4141461.8335075062
    }
  }
  waypoint {
    pose {
      x: 586252.68218132027
      y: 4141308.0027069687
    }
  }
  waypoint {
    pose {
      x: 586240.68443956145
      y: 4141259.0351276468
    }
  }
  waypoint {
    pose {
      x: 586174.87860933749
      y: 4140981.7810695409
    }
  }
  waypoint {
    pose {
      x: 586102.253651272
      y: 4140679.5439748359
    }
  }
  waypoint {
    pose {
      x: 586138.30965538335
      y: 4140550.4796294589
    }
  }
  waypoint {
    pose {
      x: 586118.73596817942
      y: 4140614.6468894258
    }
  }
  waypoint {
    pose {
      x: 586119.0378013968
      y: 4140614.7223477247
    }
  }
  waypoint {
    pose {
      x: 586898.14490188553
      y: 4141612.0656055748
    }
  }
  waypoint {
    pose {
      x: 587007.28143667278
      y: 4141580.4524913621
    }
  }
  waypoint {
    pose {
      x: 587255.6194453903
      y: 4141518.1405461151
    }
  }
  waypoint {
    pose {
      x: 587189.89507007715
      y: 4141534.5720600463
    }
  }
  waypoint {
    pose {
      x: 587286.782112754
      y: 4141510.9962709444
    }
  }
  waypoint {
    pose {
      x: 587501.6362057809
      y: 4141498.1691227686
    }
  }
  waypoint {
    pose {
      x: 588129.53955134458
      y: 4141342.5741393263
    }
  }
  waypoint {
    pose {
      x: 588205.37445714476
      y: 4141327.0227222713
    }
  }
  waypoint {
    pose {
      x: 588281.12275173352
      y: 4141318.5779650351
    }
  }
  waypoint {
    pose {
      x: 588219.25111757417
      y: 4141335.8852993222
    }
  }
  waypoint {
    pose {
      x: 586306.26546301541
      y: 4141518.0569969574
    }
  }
  waypoint {
    pose {
      x: 586295.60167323542
      y: 4141481.0869506858
    }
  }
  waypoint {
    pose {
      x: 586290.17846443038
      y: 4141461.0110903094
    }
  }
  waypoint {
    pose {
      x: 586252.76573614636
      y: 4141308.4428154449
    }
  }
  waypoint {
    pose {
      x: 586240.92443582392
      y: 4141258.4238218088
    }
  }
  waypoint {
    pose {
      x: 586175.438006668
      y: 4140981.6502319085
    }
  }
  waypoint {
    pose {
      x: 586102.940920319
      y: 4140679.879512683
    }
  }
  waypoint {
    pose {
      x: 586138.14119181852
      y: 4140549.7710525109
    }
  }
  waypoint {
    pose {
      x: 586118.72239763523
      y: 4140614.5164858303
    }
  }
  waypoint {
    pose {
      x: 587255.18689519586
      y: 4141521.7848066222
    }
  }
  waypoint {
    pose {
      x: 587504.51768370648
      y: 4141497.03235016
    }
  }
  waypoint {
    pose {
      x: 588130.52323768951
      y: 4141342.6437962204
    }
  }
  waypoint {
    pose {
      x: 588208.0666861292
      y: 4141326.3196160737
    }
  }
  waypoint {
    pose {
      x: 588280.302763001
      y: 4141318.6522360253
    }
  }
  waypoint {
    pose {
      x: 588217.76604096266
      y: 4141336.8518142849
    }
  }
  waypoint {
    pose {
      x: 586305.9883396111
      y: 4141517.8990784604
    }
  }
  waypoint {
    pose {
      x: 586295.26590337534
      y: 4141481.8519583889
    }
  }
  waypoint {
    pose {
      x: 586290.71625512815
      y: 4141461.8335075062
    }
  }
  waypoint {
    pose {
      x: 586252.68218132027
      y: 4141308.0027069687
    }
  }
  waypoint {
    pose {
      x: 586240.68443956145
      y: 4141259.0351276468
    }
  }
  waypoint {
    pose {
      x: 586174.87860933749
      y: 4140981.7810695409
    }
  }
  waypoint {
    pose {
      x: 586102.253651272
      y: 4140679.5439748359
    }
  }
  waypoint {
    pose {
      x: 586138.30965538335
      y: 4140550.4796294589
    }
  }
  waypoint {
    pose {
      x: 586118.73596817942
      y: 4140614.6468894258
    }
  }
  waypoint {
    pose {
      x: 586119.0378013968
      y: 4140614.7223477247
    }
  }
  waypoint {
    pose {
      x: 586898.14490188553
      y: 4141612.0656055748
    }
  }
  waypoint {
    pose {
      x: 587007.28143667278
      y: 4141580.4524913621
    }
  }
  waypoint {
    pose {
      x: 587255.6194453903
      y: 4141518.1405461151
    }
  }
}
landmark {
  name: "Route: Reverse Big Loop",
  waypoint {
    pose {
      x: 587702.08295969071
      y: 4141470.408318691
    }
  }
  waypoint {
    pose {
      x: 587593.60872553824
      y: 4141494.6307459795
    }
  }
  waypoint {
    pose {
      x: 587518.08406959288
      y: 4141509.2680140142
    }
  }
  waypoint {
    pose {
      x: 586316.88257333392
      y: 4141559.6866871086
    }
  }
  waypoint {
    pose {
      x: 586290.5183474865
      y: 4141462.8565801312
    }
  }
  waypoint {
    pose {
      x: 586279.71255401114
      y: 4141406.9980736496
    }
  }
  waypoint {
    pose {
      x: 586320.66260815738
      y: 4141255.3101531654
    }
  }
  waypoint {
    pose {
      x: 586695.6738116371
      y: 4141036.1398648955
    }
  }
  waypoint {
    pose {
      x: 586827.14139545523
      y: 4140997.3371780068
    }
  }
  waypoint {
    pose {
      x: 587498.2379694446
      y: 4140595.0131881749
    }
  }
  waypoint {
    pose {
      x: 587592.4127766852
      y: 4140477.2992611616
    }
  }
  waypoint {
    pose {
      x: 588420.93567728065
      y: 4141128.0360093513
    }
  }
  waypoint {
    pose {
      x: 588392.13776931388
      y: 4141193.614104223
    }
  }
  waypoint {
    pose {
      x: 587700.72357533954
      y: 4141467.5688666091
    }
  }
  waypoint {
    pose {
      x: 586316.4387231213
      y: 4141559.2413884103
    }
  }
  waypoint {
    pose {
      x: 586290.71794211189
      y: 4141462.8374152789
    }
  }
  waypoint {
    pose {
      x: 586279.683731774
      y: 4141406.8403627346
    }
  }
  waypoint {
    pose {
      x: 586321.89245627739
      y: 4141254.9205534835
    }
  }
  waypoint {
    pose {
      x: 586696.7759652267
      y: 4141035.3950411286
    }
  }
  waypoint {
    pose {
      x: 586829.29520457459
      y: 4140997.2460677181
    }
  }
  waypoint {
    pose {
      x: 587498.13737476629
      y: 4140594.9686085014
    }
  }
  waypoint {
    pose {
      x: 587593.12437772844
      y: 4140477.8180299513
    }
  }
  waypoint {
    pose {
      x: 588421.27640287392
      y: 4141127.6049437313
    }
  }
  waypoint {
    pose {
      x: 588391.99241399625
      y: 4141193.0249024108
    }
  }
  waypoint {
    pose {
      x: 587890.19223733654
      y: 4141418.5627953322
    }
  }
  waypoint {
    pose {
      x: 587803.23837031913
      y: 4141445.5444142525
    }
  }
  waypoint {
    pose {
      x: 587702.63897758164
      y: 4141470.8168617929
    }
  }
}
landmark {
  name: "Route: Sunnyvale 5.5 Mile Loop",
  waypoint {
    pose {
      x: 587194.19081264338
      y: 4141533.4652637783
    }
  }
  waypoint {
    pose {
      x: 587695.62809900416
      y: 4141355.341581278
    }
  }
  waypoint {
    pose {
      x: 587166.36308862513
      y: 4140939.0415744148
    }
  }
  waypoint {
    pose {
      x: 586493.98393910029
      y: 4141160.4809029154
    }
  }
  waypoint {
    pose {
      x: 586340.90666886931
      y: 4141261.9850424025
    }
  }
  waypoint {
    pose {
      x: 586348.54879836831
      y: 4141242.0465549454
    }
  }
  waypoint {
    pose {
      x: 587498.19308163237
      y: 4140591.5225456138
    }
  }
  waypoint {
    pose {
      x: 587369.96231649746
      y: 4140426.6031422056
    }
  }
  waypoint {
    pose {
      x: 586762.37240169081
      y: 4140434.4787304266
    }
  }
  waypoint {
    pose {
      x: 587033.67873067362
      y: 4141505.1214284305
    }
  }
  waypoint {
    pose {
      x: 586967.49942761019
      y: 4141606.2813369664
    }
  }
  waypoint {
    pose {
      x: 586290.653879135
      y: 4141371.5953595606
    }
  }
  waypoint {
    pose {
      x: 587189.05695306638
      y: 4141534.7345568785
    }
  }
  waypoint {
    pose {
      x: 587694.210664808
      y: 4141350.3192840237
    }
  }
  waypoint {
    pose {
      x: 587157.57878372981
      y: 4140941.2678237027
    }
  }
  waypoint {
    pose {
      x: 586496.61479264218
      y: 4141157.9048819989
    }
  }
  waypoint {
    pose {
      x: 586343.11238868139
      y: 4141261.3308965289
    }
  }
  waypoint {
    pose {
      x: 586353.63260956877
      y: 4141240.2801036718
    }
  }
  waypoint {
    pose {
      x: 587499.19089233642
      y: 4140594.717078479
    }
  }
  waypoint {
    pose {
      x: 587371.48721429368
      y: 4140428.1268253266
    }
  }
  waypoint {
    pose {
      x: 587032.13721323083
      y: 4141498.6720848111
    }
  }
  waypoint {
    pose {
      x: 586969.90714171133
      y: 4141605.7791460129
    }
  }
  waypoint {
    pose {
      x: 586290.8259311493
      y: 4141376.1506982208
    }
  }
  waypoint {
    pose {
      x: 587257.43294217379
      y: 4141517.5554206735
    }
  }
  waypoint {
    pose {
      x: 587194.19081264338
      y: 4141533.4652637783
    }
  }
  waypoint {
    pose {
      x: 587695.62809900416
      y: 4141355.341581278
    }
  }
  waypoint {
    pose {
      x: 587166.36308862513
      y: 4140939.0415744148
    }
  }
  waypoint {
    pose {
      x: 586493.98393910029
      y: 4141160.4809029154
    }
  }
  waypoint {
    pose {
      x: 586340.90666886931
      y: 4141261.9850424025
    }
  }
  waypoint {
    pose {
      x: 586348.54879836831
      y: 4141242.0465549454
    }
  }
  waypoint {
    pose {
      x: 587498.19308163237
      y: 4140591.5225456138
    }
  }
  waypoint {
    pose {
      x: 587369.96231649746
      y: 4140426.6031422056
    }
  }
  waypoint {
    pose {
      x: 586762.37240169081
      y: 4140434.4787304266
    }
  }
  waypoint {
    pose {
      x: 587033.67873067362
      y: 4141505.1214284305
    }
  }
  waypoint {
    pose {
      x: 586967.49942761019
      y: 4141606.2813369664
    }
  }
  waypoint {
    pose {
      x: 586290.653879135
      y: 4141371.5953595606
    }
  }
  waypoint {
    pose {
      x: 587189.05695306638
      y: 4141534.7345568785
    }
  }
  waypoint {
    pose {
      x: 587694.210664808
      y: 4141350.3192840237
    }
  }
  waypoint {
    pose {
      x: 587157.57878372981
      y: 4140941.2678237027
    }
  }
  waypoint {
    pose {
      x: 586496.61479264218
      y: 4141157.9048819989
    }
  }
  waypoint {
    pose {
      x: 586343.11238868139
      y: 4141261.3308965289
    }
  }
  waypoint {
    pose {
      x: 586353.63260956877
      y: 4141240.2801036718
    }
  }
  waypoint {
    pose {
      x: 587499.19089233642
      y: 4140594.717078479
    }
  }
  waypoint {
    pose {
      x: 587371.48721429368
      y: 4140428.1268253266
    }
  }
  waypoint {
    pose {
      x: 587032.13721323083
      y: 4141498.6720848111
    }
  }
  waypoint {
    pose {
      x: 586969.90714171133
      y: 4141605.7791460129
    }
  }
  waypoint {
    pose {
      x: 586290.8259311493
      y: 4141376.1506982208
    }
  }
  waypoint {
    pose {
      x: 587257.43294217379
      y: 4141517.5554206735
    }
  }
}
landmark {
  name: "Route: Sunnyvale Mega Loop",
  waypoint {
    pose {
      x: 587196.30302472482
      y: 4141533.329896952
    }
  }
  waypoint {
    pose {
      x: 587985.52054466028
      y: 4140596.1047229124
    }
  }
  waypoint {
    pose {
      x: 586747.08056914737
      y: 4140376.3921455285
    }
  }
  waypoint {
    pose {
      x: 587199.11752821913
      y: 4141179.1451430088
    }
  }
  waypoint {
    pose {
      x: 587432.93094910076
      y: 4140769.6052995147
    }
  }
  waypoint {
    pose {
      x: 587492.03731661208
      y: 4140569.2528081494
    }
  }
  waypoint {
    pose {
      x: 587290.98082630814
      y: 4140391.8801122331
    }
  }
  waypoint {
    pose {
      x: 586754.1321173046
      y: 4140405.124502494
    }
  }
  waypoint {
    pose {
      x: 586721.72684912151
      y: 4141051.8805178073
    }
  }
  waypoint {
    pose {
      x: 586287.62376619782
      y: 4141360.8329797043
    }
  }
  waypoint {
    pose {
      x: 587197.130395042
      y: 4141533.2423400339
    }
  }
  waypoint {
    pose {
      x: 587196.30302472482
      y: 4141533.329896952
    }
  }
  waypoint {
    pose {
      x: 587985.52054466028
      y: 4140596.1047229124
    }
  }
  waypoint {
    pose {
      x: 586747.08056914737
      y: 4140376.3921455285
    }
  }
  waypoint {
    pose {
      x: 587199.11752821913
      y: 4141179.1451430088
    }
  }
  waypoint {
    pose {
      x: 587432.93094910076
      y: 4140769.6052995147
    }
  }
  waypoint {
    pose {
      x: 587492.03731661208
      y: 4140569.2528081494
    }
  }
  waypoint {
    pose {
      x: 587290.98082630814
      y: 4140391.8801122331
    }
  }
  waypoint {
    pose {
      x: 586754.1321173046
      y: 4140405.124502494
    }
  }
  waypoint {
    pose {
      x: 586721.72684912151
      y: 4141051.8805178073
    }
  }
  waypoint {
    pose {
      x: 586287.62376619782
      y: 4141360.8329797043
    }
  }
  waypoint {
    pose {
      x: 587197.130395042
      y: 4141533.2423400339
    }
  }
}
landmark {
  name: "Route: Sunnyvale Sunrise Loop",
  waypoint {
    pose {
      x: 587711.45432942489
      y: 4141419.4744546833
    }
  }
  waypoint {
    pose {
      x: 587590.2519466877
      y: 4140941.8673459408
    }
  }
  waypoint {
    pose {
      x: 587576.61499538331
      y: 4140874.6154448325
    }
  }
  waypoint {
    pose {
      x: 587493.29459003732
      y: 4140576.454523921
    }
  }
  waypoint {
    pose {
      x: 587625.18758882012
      y: 4140485.4744061916
    }
  }
  waypoint {
    pose {
      x: 588457.22235762153
      y: 4141063.9670192818
    }
  }
  waypoint {
    pose {
      x: 588144.59485194122
      y: 4141354.3155704555
    }
  }
  waypoint {
    pose {
      x: 588056.15354700771
      y: 4141373.376196194
    }
  }
  waypoint {
    pose {
      x: 587772.26545376156
      y: 4141443.1843907912
    }
  }
  waypoint {
    pose {
      x: 587705.11289321259
      y: 4141394.9825945739
    }
  }
  waypoint {
    pose {
      x: 587589.75774337421
      y: 4140941.38782906
    }
  }
  waypoint {
    pose {
      x: 587576.57365378877
      y: 4140874.6474312311
    }
  }
  waypoint {
    pose {
      x: 587493.902779203
      y: 4140577.883675118
    }
  }
  waypoint {
    pose {
      x: 587629.03353443521
      y: 4140486.4218730163
    }
  }
  waypoint {
    pose {
      x: 588457.91793274262
      y: 4141063.2591579724
    }
  }
  waypoint {
    pose {
      x: 588144.59485194122
      y: 4141354.3155704555
    }
  }
  waypoint {
    pose {
      x: 588054.81378421292
      y: 4141373.67577607
    }
  }
  waypoint {
    pose {
      x: 587774.90482039552
      y: 4141442.2383654872
    }
  }
  waypoint {
    pose {
      x: 587682.18305884732
      y: 4141304.1989184488
    }
  }
  waypoint {
    pose {
      x: 587711.45432942489
      y: 4141419.4744546833
    }
  }
  waypoint {
    pose {
      x: 587590.2519466877
      y: 4140941.8673459408
    }
  }
  waypoint {
    pose {
      x: 587576.61499538331
      y: 4140874.6154448325
    }
  }
  waypoint {
    pose {
      x: 587493.29459003732
      y: 4140576.454523921
    }
  }
  waypoint {
    pose {
      x: 587625.18758882012
      y: 4140485.4744061916
    }
  }
  waypoint {
    pose {
      x: 588457.22235762153
      y: 4141063.9670192818
    }
  }
  waypoint {
    pose {
      x: 588144.59485194122
      y: 4141354.3155704555
    }
  }
  waypoint {
    pose {
      x: 588056.15354700771
      y: 4141373.376196194
    }
  }
  waypoint {
    pose {
      x: 587772.26545376156
      y: 4141443.1843907912
    }
  }
  waypoint {
    pose {
      x: 587705.11289321259
      y: 4141394.9825945739
    }
  }
  waypoint {
    pose {
      x: 587589.75774337421
      y: 4140941.38782906
    }
  }
  waypoint {
    pose {
      x: 587576.57365378877
      y: 4140874.6474312311
    }
  }
  waypoint {
    pose {
      x: 587493.902779203
      y: 4140577.883675118
    }
  }
  waypoint {
    pose {
      x: 587629.03353443521
      y: 4140486.4218730163
    }
  }
  waypoint {
    pose {
      x: 588457.91793274262
      y: 4141063.2591579724
    }
  }
  waypoint {
    pose {
      x: 588144.59485194122
      y: 4141354.3155704555
    }
  }
  waypoint {
    pose {
      x: 588054.81378421292
      y: 4141373.67577607
    }
  }
  waypoint {
    pose {
      x: 587774.90482039552
      y: 4141442.2383654872
    }
  }
  waypoint {
    pose {
      x: 587682.18305884732
      y: 4141304.1989184488
    }
  }
}
landmark {
  name: "Route: Reverse Early Change Lane",
  waypoint {
    pose {
      x: 587102.288778
      y: 4141556.49511
    }
  }
  waypoint {
    pose {
      x: 587357.133333
      y: 4141331.45953
    }
  }
  waypoint {
    pose {
      x: 587413.080673
      y: 4140799.88239
    }
  }
  waypoint {
    pose {
      x: 587558.489074
      y: 4140761.33465
    }
  }
  waypoint {
    pose {
      x: 587620.792609
      y: 4141484.54766
    }
  }
  waypoint {
    pose {
      x: 587193.997163
      y: 4141533.60712
    }
  }
}

landmark {
  name: "Route: Sunnyvale Small Loop",
  waypoint {
    pose {
      x: 587252.89384631824
      y: 4141518.2423705938
    }
  }
  waypoint {
    pose {
      x: 587708.63309980929
      y: 4141409.8628375642
    }
  }
  waypoint {
    pose {
      x: 587477.27518778143
      y: 4140750.8641613214
    }
  }
  waypoint {
    pose {
      x: 586282.61789474916
      y: 4141285.5734755327
    }
  }
  waypoint {
    pose {
      x: 586486.539764234
      y: 4141719.5263356566
    }
  }
  waypoint {
    pose {
      x: 587187.56149391853
      y: 4141535.6088217432
    }
  }
  waypoint {
    pose {
      x: 587187.56149391853
      y: 4141535.6088217432
    }
  }
}

landmark {
    name: "Route: Sunnyvale Loop",
    waypoint {
        pose {
            x: 586975.4
            y: 4141275.8
        }
    }
    waypoint {
        pose {
            x: 587676.4
            y: 4141451.7
        }
    }
    waypoint {
        pose {
            x: 586948.740120
            y: 4141171.118641
        }
    }
}

landmark {
  name: "Route: Sunnyvale Big Loop",
  waypoint {
    pose {
      x: 587164.343064
      y: 4141540.65078
    }
  }
  waypoint {
    pose {
      x: 588102.555502
      y: 4141345.39875
    }
  }
  waypoint {
    pose {
      x: 588180.820148
      y: 4141040.75931
    }
  }
  waypoint {
    pose {
      x: 587408.44597
      y: 4140447.34664
    }
  }
  waypoint {
    pose {
      x: 586782.74111
      y: 4140518.575
    }
  }
  waypoint {
    pose {
      x: 586869.715407
      y: 4141010.34698
    }
  }
  waypoint {
    pose {
      x: 586309.759568
      y: 4141278.01967
    }
  }
  waypoint {
    pose {
      x: 587170.193746
      y: 4141539.41371
    }
  }
  waypoint {
    pose {
      x: 588102.555502
      y: 4141345.39875
    }
  }
  waypoint {
    pose {
      x: 588180.820148
      y: 4141040.75931
    }
  }
  waypoint {
    pose {
      x: 587408.44597
      y: 4140447.34664
    }
  }
  waypoint {
    pose {
      x: 586782.74111
      y: 4140518.575
    }
  }
  waypoint {
    pose {
      x: 586869.715407
      y: 4141010.34698
    }
  }
  waypoint {
    pose {
      x: 586309.759568
      y: 4141278.01967
    }
  }
  waypoint {
    pose {
      x: 587170.193746
      y: 4141539.41371
    }
  }
}

landmark {
  name: "Route: Sunnyvale Stop Sign Loop",
  waypoint {
    pose {
      x: 587093.829996
      y: 4141558.65285
    }
  }
  waypoint {
    pose {
      x: 587585.309854
      y: 4141474.2216
    }
  }
  waypoint {
    pose {
      x: 587710.419108
      y: 4141414.29237
    }
  }
  waypoint {
    pose {
      x: 587483.015988
      y: 4140504.84869
    }
  }
  waypoint {
    pose {
      x: 586644.921556
      y: 4140197.99311
    }
  }
  waypoint {
    pose {
      x: 586427.16505
      y: 4140288.28522
    }
  }
  waypoint {
    pose {
      x: 586564.473082
      y: 4141229.50053
    }
  }
  waypoint {
    pose {
      x: 586529.064361
      y: 4141708.06827
    }
  }
  waypoint {
    pose {
      x: 587187.31
      y: 4141535.18
    }
  }
}

landmark {
    name: "Route: Sunnyvale Loop 2",
    waypoint {
        pose {
            x: 587393.71
            y: 4141474.50
        }
    }
   waypoint {
        pose {
            x: 587167.48
            y: 4140938.41
        }
    }
   waypoint {
        pose {
            x: 586413.41
            y: 4141233.38
        }
    }
   waypoint {
        pose {
            x: 587629.03
            y: 4141470.05
        }
    }
   waypoint {
        pose {
            x: 587676.09
            y: 4141476.49
        }
    }
   waypoint {
        pose {
            x: 587077.19
            y: 4141575.03
        }
    }
    waypoint {
        pose {
            x: 587138.02
            y: 4141195.75
        }
    }
}

landmark {
    name: "Route: Sunnyvale Loop 3",
    waypoint {
        pose {
            x: 587393.71
            y: 4141474.50
        }
    }
   waypoint {
        pose {
            x: 587167.48
            y: 4140938.41
        }
    }
   waypoint {
        pose {
            x: 586584.57
            y: 4141307.13
        }
    }
   waypoint {
        pose {
            x: 587629.03
            y: 4141470.05
        }
    }
   waypoint {
        pose {
            x: 587676.09
            y: 4141476.49
        }
    }
   waypoint {
        pose {
            x: 587077.19
            y: 4141575.03
        }
    }
    waypoint {
        pose {
            x: 587138.02
            y: 4141195.75
        }
    }
}

landmark {
    name: "Route: Sunnyvale Loop 4",
    waypoint {
        pose {
            x: 587393.71
            y: 4141474.50
        }
    }
   waypoint {
        pose {
            x: 587167.48
            y: 4140938.41
        }
    }
   waypoint {
        pose {
            x: 586584.57
            y: 4141307.13
        }
    }
   waypoint {
        pose {
            x: 587629.03
            y: 4141470.05
        }
    }
   waypoint {
        pose {
            x: 587676.09
            y: 4141476.49
        }
    }
   waypoint {
        pose {
            x: 587077.19
            y: 4141575.03
        }
    }
    waypoint {
        pose {
            x: 587177.50
            y: 4141537.59
        }
    }
}

landmark {
    name: "Route: 250 parking lot",
    waypoint {
      pose {
        x: 587183.3519
        y: 4141515.18572
      }
    }
    waypoint {
      pose {
        x: 587190.945983
        y: 4141422.57846
      }
    }
    waypoint {
      pose {
        x: 587249.027939
        y: 4141501.29835
      }
    }
}

landmark {
    name: "POI: 1195 office",
    waypoint {
        pose {
            x: 586384.291903
            y: 4140676.936743
        }
    }
}

landmark {
    name: "POI: 250 office",
    waypoint {
        pose {
            x: 587169.102450
            y: 4141539.780228
        }
    }
}
